Analysis
…
 marathons %>%
  filter(!is.na(country)) %>%
  group_by(winner,country,gender)%>%
  summarise(count = n()) %>%
  arrange(desc(count))

## # A tibble: 317 x 4
## # Groups:   winner, country [317]
##    winner             country        gender count
##    <chr>              <chr>          <chr>  <int>
##  1 Grete Waitz        Norway         Female    11
##  2 Bill Rodgers       United States  Male       8
##  3 Ingrid Kristiansen Norway         Female     8
##  4 Clarence DeMar     United States  Male       7
##  5 Paula Radcliffe    United Kingdom Female     7
##  6 Catherine Ndereba  Kenya          Female     6
##  7 Eliud Kipchoge     Kenya          Male       6
##  8 Mary Keitany       Kenya          Female     6
##  9 Rosa Mota          Portugal       Female     6
## 10 Uta Pippig         Germany        Female     6
## # ... with 307 more rows
…
wins bykenya by year

marathons %>% filter(country %in% c(Kenya,Norway,Unites States,United Kingdom,Germany,Ethiopia,West Germany,Japan)) %>% group_by(country,year) %>% summarize(count = n()) %>% ggplot(aes(x=year,y=cumsum(count),group=country,color=country)) + geom_freqpoly(stat = identity) + coord_cartesian(xlim=c(1985,2018)) #length(marathons$year)

marathons %>% 
  group_by(country, year) %>%
  summarise(value = n()) %>%
  mutate(csum = cumsum(value)) %>%
  group_by(country) %>%
  summarise(n = max(csum)) %>%
  arrange(desc(n))

## # A tibble: 40 x 2
##    country            n
##    <chr>          <dbl>
##  1 Kenya           135.
##  2 United States   104.
##  3 Ethiopia         51.
##  4 United Kingdom   35.
##  5 Japan            22.
##  6 Norway           20.
##  7 Germany          18.
##  8 Canada           17.
##  9 West Germany     17.
## 10 Portugal         11.
## # ... with 30 more rows
…
